{
	"ID": "74a68a984824b4510d12589f199ad68f",
	"TypeName": "FlaxEngine.SceneAsset",
	"EngineBuild": 6335,
	"Data": [
		{
			"ID": "74a68a984824b4510d12589f199ad68f",
			"TypeName": "FlaxEngine.Scene",
			"LightmapSettings": {
				"IndirectLightingIntensity": 1.0,
				"GlobalObjectsScale": 1.0,
				"ChartsPadding": 3,
				"AtlasSize": 1024,
				"BounceCount": 1,
				"CompressLightmaps": true,
				"UseGeometryWithNoMaterials": true,
				"Quality": 100
			}
		},
		{
			"ID": "5a47ee5546e0efff622eff87cb2d0753",
			"TypeName": "MagicMaze.GameManager",
			"ParentID": "74a68a984824b4510d12589f199ad68f",
			"V": {
	"DataAsset": "e896b9fe49017343bdd393b46e0cd455",
	"GameManagerAsset": "e1752c7b44b1dae83f59c8bfa9fabc0f"
}
		},
		{
			"ID": "e495188042971b9e3bfbf987a6a0d1bf",
			"TypeName": "ExitOnEsc",
			"ParentID": "74a68a984824b4510d12589f199ad68f",
			"V": {}
		},
		{
			"ID": "28553d634087c67c711ebd96080482aa",
			"TypeName": "FlaxEngine.EmptyActor",
			"ParentID": "74a68a984824b4510d12589f199ad68f",
			"Name": "Visuals"
		},
		{
			"ID": "bc81376747666609b0974580a21519a1",
			"TypeName": "FlaxEngine.Sky",
			"ParentID": "28553d634087c67c711ebd96080482aa",
			"Name": "Sky",
			"Transform": {
				"Translation": {
					"X": -69.65292358398438,
					"Y": 124.01800537109375,
					"Z": 35.34806823730469
				}
			},
			"Sun": "deecf0894777293a4f478dadacf2a6f8",
			"SunPower": 10.0
		},
		{
			"ID": "da5e1c454a56377517d41686ebb0348f",
			"TypeName": "FlaxEngine.EnvironmentProbe",
			"ParentID": "28553d634087c67c711ebd96080482aa",
			"Name": "Environment Probe",
			"Transform": {
				"Translation": {
					"X": 0.0,
					"Y": 249.3258056640625,
					"Z": 0.0
				}
			},
			"ProbeID": "1e1fb3a7447c1265b15967b480549d98"
		},
		{
			"ID": "deecf0894777293a4f478dadacf2a6f8",
			"TypeName": "FlaxEngine.DirectionalLight",
			"ParentID": "28553d634087c67c711ebd96080482aa",
			"Name": "Directional Light",
			"Transform": {
				"Translation": {
					"X": -1.6893305778503419,
					"Y": 267.7931823730469,
					"Z": 0.0
				},
				"Orientation": {
					"X": 0.5176515579223633,
					"Y": 0.0833025798201561,
					"Z": 0.06534233689308167,
					"W": 0.8490158915519714
				}
			},
			"Color": {
				"R": 1.0,
				"G": 0.9770245552062988,
				"B": 0.8860000371932983,
				"A": 1.0
			}
		},
		{
			"ID": "eb18e84d41670d6314174b89a1d5ffea",
			"TypeName": "FlaxEngine.SkyLight",
			"ParentID": "28553d634087c67c711ebd96080482aa",
			"Name": "SkyLight",
			"Transform": {
				"Translation": {
					"X": 0.0,
					"Y": 150.0,
					"Z": 0.0
				}
			},
			"BakedProbe": "1c0e10484ff57d402275289550564b9f",
			"Mode": 0
		},
		{
			"ID": "4a9d87134ab42f4294db6bbcf1902bde",
			"TypeName": "FlaxEngine.StaticModel",
			"ParentID": "74a68a984824b4510d12589f199ad68f",
			"IsActive": false,
			"Name": "Floor",
			"Transform": {
				"Scale": {
					"X": 10.0,
					"Y": 0.5,
					"Z": 10.0
				}
			},
			"Model": "b43f0f8f4aaba3f3156896a5a22ba493",
			"Buffer": {
				"Entries": [
					{
						"Material": "382f1ae946c519eff6e6f3a2965cf56b",
						"ShadowsMode": 3,
						"Visible": true,
						"ReceiveDecals": true
					}
				]
			}
		},
		{
			"ID": "4a7045e748c74e3de29afd8856f99205",
			"TypeName": "FlaxEngine.BoxCollider",
			"ParentID": "4a9d87134ab42f4294db6bbcf1902bde",
			"Name": "BoxCollider"
		},
		{
			"ID": "a10b044c4604761f0b4407bf89b790cf",
			"TypeName": "FlaxEngine.UICanvas",
			"ParentID": "74a68a984824b4510d12589f199ad68f",
			"Name": "UICanvas",
			"Transform": {
				"Orientation": {
					"X": 1.0,
					"Y": 4.371138828673793e-8,
					"Z": 4.371138828673793e-8,
					"W": 1.910685465164705e-15
				}
			},
			"V": {}
		},
		{
			"ID": "40a4593541ad386040dda0be5ef30622",
			"PrefabID": "1ce3c1cf4242f306bb6e2f8c4a2611a8",
			"PrefabObjectID": "04fde8d84be5e03b9c0b1d9b143e903c",
			"ParentID": "a10b044c4604761f0b4407bf89b790cf",
			"Transform": {
				"Translation": {
					"X": 10.0,
					"Y": 10.0,
					"Z": 0.0
				}
			},
			"Data": {
	"Offsets": {
		"Left": 10.0,
		"Top": 10.0
	}
}
		},
		{
			"ID": "2def2a9648d182bb11b3d69b92631c7d",
			"PrefabID": "1ce3c1cf4242f306bb6e2f8c4a2611a8",
			"PrefabObjectID": "30b9465a4550ff6b4b502eb134d1a3b2",
			"ParentID": "40a4593541ad386040dda0be5ef30622",
			"V": {
	"Button": "40a4593541ad386040dda0be5ef30622"
}
		},
		{
			"ID": "5ec964994f034439e22543a953b74e28",
			"PrefabID": "1ce3c1cf4242f306bb6e2f8c4a2611a8",
			"PrefabObjectID": "739b43c141ed43221c7d169e27132b2d",
			"ParentID": "40a4593541ad386040dda0be5ef30622",
			"Data": {}
		},
		{
			"ID": "da347997462f5d8eef83a9847a4d2553",
			"TypeName": "FlaxEngine.EmptyActor",
			"ParentID": "74a68a984824b4510d12589f199ad68f",
			"Name": "Map"
		},
		{
			"ID": "839908964982ef14b011df8ffe4f10cc",
			"TypeName": "MagicMaze.Map",
			"ParentID": "da347997462f5d8eef83a9847a4d2553",
			"V": {
	"GameManagerAsset": "e1752c7b44b1dae83f59c8bfa9fabc0f",
	"TilePrefab": "bebee8c2428a1513e6f77b9dafb3df8d",
	"PawnPrefab": "da555b80409f610474f708b3cae620f1"
}
		},
		{
			"ID": "43c4bf4d46fc40fb1d457d85bd34c897",
			"PrefabID": "b59690fe4616ed241820ef8729a1a61f",
			"PrefabObjectID": "47d93cd140b4befdb657839b9032fde6",
			"ParentID": "74a68a984824b4510d12589f199ad68f",
			"Name": "Camera"
		},
		{
			"ID": "5def27ba44320defd3769185809b7c26",
			"PrefabID": "b59690fe4616ed241820ef8729a1a61f",
			"PrefabObjectID": "ab7e533a4b1b402154fb9f972ecabb91",
			"ParentID": "43c4bf4d46fc40fb1d457d85bd34c897"
		},
		{
			"ID": "012b89cf49c6868e57c0f3a6b32d2a9d",
			"PrefabID": "b59690fe4616ed241820ef8729a1a61f",
			"PrefabObjectID": "95b6382b46bd496e1796e9833c678f2a",
			"ParentID": "5def27ba44320defd3769185809b7c26",
			"V": {
	"Camera": "5def27ba44320defd3769185809b7c26"
}
		},
		{
			"ID": "6a415053421dcb0188cbbdace30fb253",
			"PrefabID": "b59690fe4616ed241820ef8729a1a61f",
			"PrefabObjectID": "190e0d3c4569064f634a438048f6ec95",
			"ParentID": "5def27ba44320defd3769185809b7c26",
			"Settings": {
				"AO": {},
				"GI": {},
				"Bloom": {},
				"ToneMapping": {},
				"ColorGrading": {},
				"EyeAdaptation": {},
				"CameraArtifacts": {},
				"LensFlares": {},
				"DepthOfField": {},
				"MotionBlur": {},
				"SSR": {},
				"AA": {},
				"PostFxMaterials": {}
			}
		},
		{
			"ID": "74c6eb9d4e44bd182d5eb29168af3880",
			"PrefabID": "57eb70a843c45c352b16a9947ff9876f",
			"PrefabObjectID": "39080b4748c7e098cd3608ab1dc821c2",
			"ParentID": "74a68a984824b4510d12589f199ad68f",
			"Name": "GameUI",
			"V": {}
		},
		{
			"ID": "bb9939764ddede58c56e2b95c5e5f1ea",
			"PrefabID": "57eb70a843c45c352b16a9947ff9876f",
			"PrefabObjectID": "cc5d3232453f8bb10f610fafc847bb45",
			"ParentID": "74c6eb9d4e44bd182d5eb29168af3880",
			"Transform": {
				"Translation": {
					"X": 10.0,
					"Y": 235.0,
					"Z": 0.0
				}
			},
			"Data": {}
		},
		{
			"ID": "368933f349f0513c189c1595cab9deef",
			"PrefabID": "57eb70a843c45c352b16a9947ff9876f",
			"PrefabObjectID": "f7ece117409c72ebcc45ab8704945485",
			"ParentID": "bb9939764ddede58c56e2b95c5e5f1ea",
			"V": {
	"ActionsLabel": "30a7898b4396aabbcaa704b0323a8f9c",
	"NextButton": "b605958440be58a0ffb8a0a877998411",
	"ActionIcon": "fccf26864382cf92efe21e8201c12192",
	"ActionLabel": "54fcad2b483be8af29d82f9978f5651a"
}
		},
		{
			"ID": "3b9c617d457c03925c704e8cf78f323b",
			"PrefabID": "57eb70a843c45c352b16a9947ff9876f",
			"PrefabObjectID": "60aa592f411e9545f6f8548b86a1db8d",
			"ParentID": "bb9939764ddede58c56e2b95c5e5f1ea",
			"Data": {
	"Brush": {
		"$type": "FlaxEngine.GUI.SolidColorBrush, FlaxEngine.CSharp"
	}
}
		},
		{
			"ID": "af076b1349933796ccc4999e44408c4b",
			"PrefabID": "57eb70a843c45c352b16a9947ff9876f",
			"PrefabObjectID": "04d417c94c1c22954730999a22b4c955",
			"ParentID": "bb9939764ddede58c56e2b95c5e5f1ea",
			"Data": {}
		},
		{
			"ID": "30a7898b4396aabbcaa704b0323a8f9c",
			"PrefabID": "57eb70a843c45c352b16a9947ff9876f",
			"PrefabObjectID": "31dec738456b6be1cb6e8a8351f80867",
			"ParentID": "af076b1349933796ccc4999e44408c4b",
			"Data": {}
		},
		{
			"ID": "54fcad2b483be8af29d82f9978f5651a",
			"PrefabID": "57eb70a843c45c352b16a9947ff9876f",
			"PrefabObjectID": "48e2174b49eb63081d084495afebff2e",
			"ParentID": "af076b1349933796ccc4999e44408c4b",
			"Data": {}
		},
		{
			"ID": "b605958440be58a0ffb8a0a877998411",
			"PrefabID": "57eb70a843c45c352b16a9947ff9876f",
			"PrefabObjectID": "af779b0940b86a2485b355a59e22e4e4",
			"ParentID": "af076b1349933796ccc4999e44408c4b",
			"Data": {}
		},
		{
			"ID": "fccf26864382cf92efe21e8201c12192",
			"PrefabID": "57eb70a843c45c352b16a9947ff9876f",
			"PrefabObjectID": "5e04e93d47e8fd572e972db70f8cf936",
			"ParentID": "b605958440be58a0ffb8a0a877998411",
			"Data": {
	"Brush": {
		"$type": "FlaxEngine.GUI.TextureBrush, FlaxEngine.CSharp"
	}
}
		},
		{
			"ID": "070c7cab4d47743449e7d585cba9b80d",
			"PrefabID": "57eb70a843c45c352b16a9947ff9876f",
			"PrefabObjectID": "50910f104e6f613f8e999bb419977f9e",
			"ParentID": "b605958440be58a0ffb8a0a877998411",
			"Data": {}
		},
		{
			"ID": "957f59ca4d3611250b3d55b3a51551e2",
			"PrefabID": "57eb70a843c45c352b16a9947ff9876f",
			"PrefabObjectID": "3976a6f446a1a75b8ee291a1f179257e",
			"ParentID": "74c6eb9d4e44bd182d5eb29168af3880",
			"Transform": {
				"Translation": {
					"X": 10.0,
					"Y": 186.5,
					"Z": 0.0
				},
				"Orientation": {
					"X": 1.0,
					"Y": 4.371138828673793e-8,
					"Z": 4.371138828673793e-8,
					"W": 1.910685465164705e-15
				}
			},
			"Data": {}
		},
		{
			"ID": "f7d4fe9c4cce97b65131d4961a634d5b",
			"PrefabID": "57eb70a843c45c352b16a9947ff9876f",
			"PrefabObjectID": "cc8bb34c4ead1be625cfa1a1ac315962",
			"ParentID": "957f59ca4d3611250b3d55b3a51551e2",
			"V": {
	"TimerLabel": "1da53e41427291beed468893a3ed0f94"
}
		},
		{
			"ID": "232113444aad6096afbab8b415c2f15c",
			"PrefabID": "57eb70a843c45c352b16a9947ff9876f",
			"PrefabObjectID": "a8ed59e74e1f5911b85f30a7b7d18501",
			"ParentID": "957f59ca4d3611250b3d55b3a51551e2",
			"Data": {
	"Brush": {
		"$type": "FlaxEngine.GUI.SolidColorBrush, FlaxEngine.CSharp"
	}
}
		},
		{
			"ID": "1da53e41427291beed468893a3ed0f94",
			"PrefabID": "57eb70a843c45c352b16a9947ff9876f",
			"PrefabObjectID": "cd5afc9a434a455cfdbae584cb39cac8",
			"ParentID": "232113444aad6096afbab8b415c2f15c",
			"Data": {}
		},
		{
			"ID": "329b9f69477f34876d3daaad1938d4ae",
			"PrefabID": "57eb70a843c45c352b16a9947ff9876f",
			"PrefabObjectID": "33eab9514e180a47b83f8998e2528b1c",
			"ParentID": "74c6eb9d4e44bd182d5eb29168af3880",
			"Data": {}
		},
		{
			"ID": "7b6903504908ac83d08f8ab9d257006d",
			"PrefabID": "57eb70a843c45c352b16a9947ff9876f",
			"PrefabObjectID": "84ab825d4abc5dbe92879aae314b40f5",
			"ParentID": "329b9f69477f34876d3daaad1938d4ae",
			"V": {
	"GameOverPanel": "1e24f1de47f9111d264236b92654af04",
	"GameWinPanel": "3d62956849c972024ece8d8125974077"
}
		},
		{
			"ID": "1e24f1de47f9111d264236b92654af04",
			"PrefabID": "57eb70a843c45c352b16a9947ff9876f",
			"PrefabObjectID": "ae7bde9041842f4cf793a8ac7b32296b",
			"ParentID": "329b9f69477f34876d3daaad1938d4ae",
			"Data": {
	"Brush": {
		"$type": "FlaxEngine.GUI.SolidColorBrush, FlaxEngine.CSharp"
	}
}
		},
		{
			"ID": "f0d484134bb402531acf45a9aa469782",
			"PrefabID": "57eb70a843c45c352b16a9947ff9876f",
			"PrefabObjectID": "5a7cbd4642347735b4607d87bd1ef325",
			"ParentID": "1e24f1de47f9111d264236b92654af04",
			"Data": {}
		},
		{
			"ID": "abdda94545bccd76e03b2c96811ba365",
			"PrefabID": "57eb70a843c45c352b16a9947ff9876f",
			"PrefabObjectID": "c2bd8ec347d0150aa09b62b61f4afc58",
			"ParentID": "f0d484134bb402531acf45a9aa469782",
			"Data": {
	"Brush": {
		"$type": "FlaxEngine.GUI.SolidColorBrush, FlaxEngine.CSharp"
	}
}
		},
		{
			"ID": "4913ae3847a2d6afd2683bb4fb0c91fa",
			"PrefabID": "57eb70a843c45c352b16a9947ff9876f",
			"PrefabObjectID": "bfeea51341674d7b964b6d81ca1eaba5",
			"ParentID": "f0d484134bb402531acf45a9aa469782",
			"Data": {}
		},
		{
			"ID": "76f9fb244a02c76fae8f2e9f1b4046d1",
			"PrefabID": "57eb70a843c45c352b16a9947ff9876f",
			"PrefabObjectID": "01d23c8e43d8e7c2813e7693b3418cad",
			"ParentID": "f0d484134bb402531acf45a9aa469782",
			"Data": {}
		},
		{
			"ID": "23bb3b1440e7a9a52a1a60ba8f347b9f",
			"PrefabID": "57eb70a843c45c352b16a9947ff9876f",
			"PrefabObjectID": "9d3fd7b74afbd10a6c5719b6f436fa6b",
			"ParentID": "76f9fb244a02c76fae8f2e9f1b4046d1",
			"V": {
	"Button": "76f9fb244a02c76fae8f2e9f1b4046d1"
}
		},
		{
			"ID": "ec0453ad42a0233550629d86661305ee",
			"PrefabID": "57eb70a843c45c352b16a9947ff9876f",
			"PrefabObjectID": "5606fe294e66497b8f4024bbd8efc104",
			"ParentID": "76f9fb244a02c76fae8f2e9f1b4046d1",
			"Data": {}
		},
		{
			"ID": "3d62956849c972024ece8d8125974077",
			"PrefabID": "57eb70a843c45c352b16a9947ff9876f",
			"PrefabObjectID": "07b260b44fb8cdfab4d12694dbbac75b",
			"ParentID": "329b9f69477f34876d3daaad1938d4ae",
			"Data": {
	"Brush": {
		"$type": "FlaxEngine.GUI.SolidColorBrush, FlaxEngine.CSharp"
	}
}
		},
		{
			"ID": "3f2135e34eb56b020da82bb5cd931d6b",
			"PrefabID": "57eb70a843c45c352b16a9947ff9876f",
			"PrefabObjectID": "bfeab6094cdf0d60a41d1bad4902f3f7",
			"ParentID": "3d62956849c972024ece8d8125974077",
			"Data": {}
		},
		{
			"ID": "2a8339514227cf0494dbbab5fa37c373",
			"PrefabID": "57eb70a843c45c352b16a9947ff9876f",
			"PrefabObjectID": "876eb3a74206951c1f762e867bc0190b",
			"ParentID": "3f2135e34eb56b020da82bb5cd931d6b",
			"Data": {
	"Brush": {
		"$type": "FlaxEngine.GUI.SolidColorBrush, FlaxEngine.CSharp"
	}
}
		},
		{
			"ID": "aced59754545c321dd7382998a0cafdf",
			"PrefabID": "57eb70a843c45c352b16a9947ff9876f",
			"PrefabObjectID": "16c04a7a4a47f6a00b5f5595c1f5ffda",
			"ParentID": "3f2135e34eb56b020da82bb5cd931d6b",
			"Data": {}
		},
		{
			"ID": "8a50e38d48715332826ce086989f11da",
			"PrefabID": "57eb70a843c45c352b16a9947ff9876f",
			"PrefabObjectID": "29df66764fc612d243b8e295edc5bf6f",
			"ParentID": "3f2135e34eb56b020da82bb5cd931d6b",
			"Data": {}
		},
		{
			"ID": "3a1ecc8d43ccb63db24daaa0be58e1e5",
			"PrefabID": "57eb70a843c45c352b16a9947ff9876f",
			"PrefabObjectID": "7163fcd64ae5a50ddc236d824edadec8",
			"ParentID": "8a50e38d48715332826ce086989f11da",
			"V": {
	"Button": "8a50e38d48715332826ce086989f11da"
}
		},
		{
			"ID": "13c2ee8241928e005d18ee8af05f1fdf",
			"PrefabID": "57eb70a843c45c352b16a9947ff9876f",
			"PrefabObjectID": "ba05c18a4c3fc429a3bd25b033ade76f",
			"ParentID": "8a50e38d48715332826ce086989f11da",
			"Data": {}
		},
		{
			"ID": "b7421c07439239b4ae37c4b94a146aa7",
			"TypeName": "FlaxEngine.StaticModel",
			"ParentID": "74a68a984824b4510d12589f199ad68f",
			"Name": "StaticModel",
			"Transform": {
				"Translation": {
					"X": 0.0,
					"Y": -15.0,
					"Z": 0.0
				},
				"Scale": {
					"X": 10.0,
					"Y": 10.0,
					"Z": 10.0
				}
			},
			"Model": "50310067422bada39f9553b41c4869a4",
			"Buffer": {
				"Entries": [
					{
						"Material": "00000000000000000000000000000000",
						"ShadowsMode": 3,
						"Visible": true,
						"ReceiveDecals": true
					}
				]
			}
		}
	]
}