{
	"ID": "09ade09e457e974b8752f1a0c0ec2aa8",
	"TypeName": "MagicMaze.Model.TileBlock",
	"EngineBuild": 6335,
	"Data": {
	"Tiles": [
		{
			"LocalPosition": {
				"X": 0,
				"Y": 1
			},
			"Position": {
				"X": 0,
				"Y": 0
			},
			"Stairs": {
				"X": 0,
				"Y": 0
			},
			"Teleport": null,
			"Explore": null,
			"Item": null,
			"Exit": null,
			"Timer": true,
			"IsDeactivated": false,
			"Walls": [
				2,
				3
			]
		},
		{
			"LocalPosition": {
				"X": 0,
				"Y": 2
			},
			"Position": {
				"X": 0,
				"Y": 0
			},
			"Stairs": {
				"X": 0,
				"Y": 0
			},
			"Teleport": null,
			"Explore": null,
			"Item": null,
			"Exit": null,
			"Timer": false,
			"IsDeactivated": false,
			"Walls": [
				1,
				2,
				3
			]
		},
		{
			"LocalPosition": {
				"X": 0,
				"Y": 3
			},
			"Position": {
				"X": 0,
				"Y": 0
			},
			"Stairs": {
				"X": 0,
				"Y": 0
			},
			"Teleport": null,
			"Explore": null,
			"Item": null,
			"Exit": null,
			"Timer": false,
			"IsDeactivated": false,
			"Walls": [
				3,
				0
			]
		},
		{
			"LocalPosition": {
				"X": 1,
				"Y": 0
			},
			"Position": {
				"X": 0,
				"Y": 0
			},
			"Stairs": {
				"X": 0,
				"Y": 0
			},
			"Teleport": null,
			"Explore": null,
			"Item": null,
			"Exit": null,
			"Timer": false,
			"IsDeactivated": false,
			"Walls": [
				3
			]
		},
		{
			"LocalPosition": {
				"X": 1,
				"Y": 1
			},
			"Position": {
				"X": 0,
				"Y": 0
			},
			"Stairs": {
				"X": 0,
				"Y": 0
			},
			"Teleport": null,
			"Explore": null,
			"Item": null,
			"Exit": null,
			"Timer": false,
			"IsDeactivated": false,
			"Walls": [
				2
			]
		},
		{
			"LocalPosition": {
				"X": 1,
				"Y": 2
			},
			"Position": {
				"X": 0,
				"Y": 0
			},
			"Stairs": {
				"X": 0,
				"Y": 0
			},
			"Teleport": null,
			"Explore": null,
			"Item": null,
			"Exit": null,
			"Timer": false,
			"IsDeactivated": false,
			"Walls": null
		},
		{
			"LocalPosition": {
				"X": 1,
				"Y": 3
			},
			"Position": {
				"X": 0,
				"Y": 0
			},
			"Stairs": {
				"X": 0,
				"Y": 0
			},
			"Teleport": null,
			"Explore": null,
			"Item": null,
			"Exit": null,
			"Timer": false,
			"IsDeactivated": false,
			"Walls": [
				0
			]
		},
		{
			"LocalPosition": {
				"X": 2,
				"Y": 0
			},
			"Position": {
				"X": 0,
				"Y": 0
			},
			"Stairs": {
				"X": 0,
				"Y": 0
			},
			"Teleport": null,
			"Explore": null,
			"Item": null,
			"Exit": null,
			"Timer": false,
			"IsDeactivated": false,
			"Walls": [
				1,
				2
			]
		},
		{
			"LocalPosition": {
				"X": 2,
				"Y": 1
			},
			"Position": {
				"X": 0,
				"Y": 0
			},
			"Stairs": {
				"X": 0,
				"Y": 0
			},
			"Teleport": null,
			"Explore": null,
			"Item": null,
			"Exit": null,
			"Timer": false,
			"IsDeactivated": false,
			"Walls": null
		},
		{
			"LocalPosition": {
				"X": 2,
				"Y": 2
			},
			"Position": {
				"X": 0,
				"Y": 0
			},
			"Stairs": {
				"X": 0,
				"Y": 0
			},
			"Teleport": null,
			"Explore": null,
			"Item": null,
			"Exit": null,
			"Timer": false,
			"IsDeactivated": false,
			"Walls": [
				2
			]
		},
		{
			"LocalPosition": {
				"X": 2,
				"Y": 3
			},
			"Position": {
				"X": 0,
				"Y": 0
			},
			"Stairs": {
				"X": 0,
				"Y": 0
			},
			"Teleport": "eced31ff407ef4ea8ad16bba3080684c",
			"Explore": null,
			"Item": null,
			"Exit": null,
			"Timer": false,
			"IsDeactivated": false,
			"Walls": [
				3,
				1,
				0
			]
		},
		{
			"LocalPosition": {
				"X": 3,
				"Y": 1
			},
			"Position": {
				"X": 0,
				"Y": 0
			},
			"Stairs": {
				"X": 0,
				"Y": 0
			},
			"Teleport": null,
			"Explore": "fe2e37da4b2e21527b6ec19755ddf3bf",
			"Item": null,
			"Exit": null,
			"Timer": false,
			"IsDeactivated": false,
			"Walls": [
				2
			]
		},
		{
			"LocalPosition": {
				"X": 3,
				"Y": 2
			},
			"Position": {
				"X": 0,
				"Y": 0
			},
			"Stairs": {
				"X": 0,
				"Y": 0
			},
			"Teleport": "83ebad14438879d6107b62bbe5f966f9",
			"Explore": null,
			"Item": null,
			"Exit": null,
			"Timer": false,
			"IsDeactivated": false,
			"Walls": [
				2,
				1,
				0
			]
		}
	],
	"Orientation": {
		"X": 0,
		"Y": 0
	}
}
}