{
	"ID": "b95d79cc4abedb4ad6dfb9bb843f2b90",
	"TypeName": "MagicMaze.Model.TileBlock",
	"EngineBuild": 6335,
	"Data": {
	"Tiles": [
		{
			"LocalPosition": {
				"X": 0,
				"Y": 1
			},
			"Position": {
				"X": 0,
				"Y": 0
			},
			"Stairs": {
				"X": 0,
				"Y": 0
			},
			"Teleport": null,
			"Explore": null,
			"Item": null,
			"Exit": null,
			"Timer": false,
			"IsDeactivated": false,
			"Walls": [
				3,
				2
			]
		},
		{
			"LocalPosition": {
				"X": 0,
				"Y": 2
			},
			"Position": {
				"X": 0,
				"Y": 0
			},
			"Stairs": {
				"X": 0,
				"Y": 0
			},
			"Teleport": null,
			"Explore": null,
			"Item": null,
			"Exit": null,
			"Timer": false,
			"IsDeactivated": false,
			"Walls": [
				1,
				3
			]
		},
		{
			"LocalPosition": {
				"X": 0,
				"Y": 3
			},
			"Position": {
				"X": 0,
				"Y": 0
			},
			"Stairs": {
				"X": 0,
				"Y": 0
			},
			"Teleport": null,
			"Explore": null,
			"Item": null,
			"Exit": null,
			"Timer": false,
			"IsDeactivated": false,
			"Walls": [
				3,
				0
			]
		},
		{
			"LocalPosition": {
				"X": 1,
				"Y": 0
			},
			"Position": {
				"X": 0,
				"Y": 0
			},
			"Stairs": {
				"X": 0,
				"Y": 0
			},
			"Teleport": null,
			"Explore": null,
			"Item": null,
			"Exit": null,
			"Timer": false,
			"IsDeactivated": false,
			"Walls": [
				1,
				3
			]
		},
		{
			"LocalPosition": {
				"X": 1,
				"Y": 1
			},
			"Position": {
				"X": 0,
				"Y": 0
			},
			"Stairs": {
				"X": 0,
				"Y": 0
			},
			"Teleport": null,
			"Explore": null,
			"Item": null,
			"Exit": null,
			"Timer": false,
			"IsDeactivated": false,
			"Walls": [
				1,
				0
			]
		},
		{
			"LocalPosition": {
				"X": 1,
				"Y": 3
			},
			"Position": {
				"X": 0,
				"Y": 0
			},
			"Stairs": {
				"X": 0,
				"Y": 0
			},
			"Teleport": null,
			"Explore": null,
			"Item": null,
			"Exit": null,
			"Timer": false,
			"IsDeactivated": false,
			"Walls": [
				0,
				2
			]
		},
		{
			"LocalPosition": {
				"X": 2,
				"Y": 2
			},
			"Position": {
				"X": 0,
				"Y": 0
			},
			"Stairs": {
				"X": 0,
				"Y": 0
			},
			"Teleport": "eced31ff407ef4ea8ad16bba3080684c",
			"Explore": null,
			"Item": null,
			"Exit": null,
			"Timer": false,
			"IsDeactivated": false,
			"Walls": [
				0,
				3,
				2
			]
		},
		{
			"LocalPosition": {
				"X": 2,
				"Y": 3
			},
			"Position": {
				"X": 0,
				"Y": 0
			},
			"Stairs": {
				"X": 0,
				"Y": 0
			},
			"Teleport": null,
			"Explore": null,
			"Item": null,
			"Exit": null,
			"Timer": false,
			"IsDeactivated": false,
			"Walls": [
				0
			]
		},
		{
			"LocalPosition": {
				"X": 3,
				"Y": 0
			},
			"Position": {
				"X": 0,
				"Y": 0
			},
			"Stairs": {
				"X": 0,
				"Y": 0
			},
			"Teleport": null,
			"Explore": null,
			"Item": "3240600444c9e72f6f87d9972dee2428",
			"Exit": null,
			"Timer": false,
			"IsDeactivated": false,
			"Walls": [
				1,
				3,
				2
			]
		},
		{
			"LocalPosition": {
				"X": 3,
				"Y": 1
			},
			"Position": {
				"X": 0,
				"Y": 0
			},
			"Stairs": {
				"X": 0,
				"Y": 0
			},
			"Teleport": null,
			"Explore": "fe2e37da4b2e21527b6ec19755ddf3bf",
			"Item": null,
			"Exit": null,
			"Timer": false,
			"IsDeactivated": false,
			"Walls": [
				3
			]
		},
		{
			"LocalPosition": {
				"X": 3,
				"Y": 2
			},
			"Position": {
				"X": 0,
				"Y": 0
			},
			"Stairs": {
				"X": 0,
				"Y": 0
			},
			"Teleport": null,
			"Explore": null,
			"Item": null,
			"Exit": null,
			"Timer": false,
			"IsDeactivated": false,
			"Walls": [
				1
			]
		},
		{
			"LocalPosition": {
				"X": 3,
				"Y": 3
			},
			"Position": {
				"X": 0,
				"Y": 0
			},
			"Stairs": {
				"X": 0,
				"Y": 0
			},
			"Teleport": null,
			"Explore": null,
			"Item": null,
			"Exit": null,
			"Timer": false,
			"IsDeactivated": false,
			"Walls": [
				1,
				0
			]
		}
	],
	"Orientation": {
		"X": 0,
		"Y": 0
	}
}
}