{
	"ID": "cba9b9814c2a0236d1c0599523b9abf5",
	"TypeName": "FlaxEngine.Prefab",
	"EngineBuild": 6335,
	"Data": [
	{
		"ID": "ab47f0d546683b6f193f499707b6cfc6",
		"TypeName": "FlaxEngine.StaticModel",
		"Name": "StaticModel",
		"Transform": {
			"Orientation": {
				"X": 0.0,
				"Y": -0.7071068286895752,
				"Z": 0.0,
				"W": 0.7071068286895752
			},
			"Scale": {
				"X": 0.15000000596046449,
				"Y": 0.15000000596046449,
				"Z": 0.15000000596046449
			}
		},
		"Model": "4884e35e4622d9beb96f11a8090d41b3",
		"Buffer": {
			"Entries": [
				{
					"Material": "39a0c9b14ad96bd6772537aa9aff85cf",
					"ShadowsMode": 3,
					"Visible": true,
					"ReceiveDecals": true
				},
				{
					"Material": "34881cf04fef331fb5b64c99cae14412",
					"ShadowsMode": 3,
					"Visible": true,
					"ReceiveDecals": true
				},
				{
					"Material": "39a0c9b14ad96bd6772537aa9aff85cf",
					"ShadowsMode": 3,
					"Visible": true,
					"ReceiveDecals": true
				}
			]
		}
	}
]
}