{
	"ID": "98455e9b44ab68790473ed8740e83e98",
	"TypeName": "FlaxEngine.Prefab",
	"EngineBuild": 6335,
	"Data": [
	{
		"ID": "ab47f0d546683b6f193f499707b6cfc6",
		"TypeName": "FlaxEngine.StaticModel",
		"Name": "StaticModel",
		"Transform": {
			"Orientation": {
				"X": 0.0,
				"Y": -0.7071068286895752,
				"Z": 0.0,
				"W": 0.7071068286895752
			},
			"Scale": {
				"X": 0.15000000596046449,
				"Y": 0.15000000596046449,
				"Z": 0.15000000596046449
			}
		},
		"Model": "c8f00aa5453494146f2cc28ef770fb96",
		"Buffer": {
			"Entries": [
				{
					"Material": "9ab21aaf49fbae16699be0becb1807d1",
					"ShadowsMode": 3,
					"Visible": true,
					"ReceiveDecals": true
				},
				{
					"Material": "39a0c9b14ad96bd6772537aa9aff85cf",
					"ShadowsMode": 3,
					"Visible": true,
					"ReceiveDecals": true
				},
				{
					"Material": "00000000000000000000000000000000",
					"ShadowsMode": 3,
					"Visible": true,
					"ReceiveDecals": true
				}
			]
		}
	}
]
}