{
	"ID": "737b4d5446327de746a122aa6bae4546",
	"TypeName": "MagicMaze.Model.ActionMove",
	"EngineBuild": 6335,
	"Data": {
	"Direction": {
		"X": 1,
		"Y": 0
	},
	"Title": "Move East",
	"Texture": "9e5658ed44c8b08d1bf01d9959d4853e"
}
}