{
	"ID": "7c1c6518484bd45e0cc384a2419165ba",
	"TypeName": "MagicMaze.Model.ActionMove",
	"EngineBuild": 6335,
	"Data": {
	"Direction": {
		"X": -1,
		"Y": 0
	},
	"Title": "Move West",
	"Texture": "9e5658ed44c8b08d1bf01d9959d4853e"
}
}