{
	"ID": "04c9852148cfe5944a4750bc44656640",
	"TypeName": "MagicMaze.Model.ActionTeleport",
	"EngineBuild": 6335,
	"Data": {
	"Direction": {
		"X": 0,
		"Y": 0
	},
	"Qty": 50,
	"Title": "Teleport",
	"Texture": "217459f240f09a32142652aef2969d53"
}
}