{
	"ID": "83ebad14438879d6107b62bbe5f966f9",
	"TypeName": "MagicMaze.Model.PawnType",
	"EngineBuild": 6335,
	"Data": {
	"Color": {
		"R": 0.0,
		"G": 256.0,
		"B": 0.0,
		"A": 0.0
	},
	"MaterialInstance": "34881cf04fef331fb5b64c99cae14412",
	"Model": "cba9b9814c2a0236d1c0599523b9abf5",
	"Item": "0a4bb9dd46ac6d230965a1b5e35db8da"
}
}